module github.com/ardanlabs/smartcontract

go 1.22

require (
	github.com/ardanlabs/ethereum v0.18.1
	github.com/ethereum/go-ethereum v1.13.12
)

require (
	github.com/DataDog/zstd v1.5.5 // indirect
	github.com/DeOne4eg/eth-unit-converter v0.2.0 // indirect
	github.com/Microsoft/go-winio v0.6.1 // indirect
	github.com/VictoriaMetrics/fastcache v1.12.2 // indirect
	github.com/beorn7/perks v1.0.1 // indirect
	github.com/bits-and-blooms/bitset v1.13.0 // indirect
	github.com/btcsuite/btcd/btcec/v2 v2.3.2 // indirect
	github.com/cespare/xxhash/v2 v2.2.0 // indirect
	github.com/cockroachdb/errors v1.11.1 // indirect
	github.com/cockroachdb/logtags v0.0.0-20230118201751-21c54148d20b // indirect
	github.com/cockroachdb/pebble v0.0.0-20230928194634-aa077af62593 // indirect
	github.com/cockroachdb/redact v1.1.5 // indirect
	github.com/cockroachdb/tokenbucket v0.0.0-20230807174530-cc333fc44b06 // indirect
	github.com/consensys/bavard v0.1.13 // indirect
	github.com/consensys/gnark-crypto v0.12.1 // indirect
	github.com/cpuguy83/go-md2man/v2 v2.0.3 // indirect
	github.com/crate-crypto/go-ipa v0.0.0-20231205143816-408dbffb2041 // indirect
	github.com/crate-crypto/go-kzg-4844 v0.7.0 // indirect
	github.com/davecgh/go-spew v1.1.1 // indirect
	github.com/deckarep/golang-set/v2 v2.6.0 // indirect
	github.com/decred/dcrd/dcrec/secp256k1/v4 v4.2.0 // indirect
	github.com/ethereum/c-kzg-4844 v0.4.1 // indirect
	github.com/fjl/memsize v0.0.2 // indirect
	github.com/fsnotify/fsnotify v1.7.0 // indirect
	github.com/gballet/go-libpcsclite v0.0.0-20191108122812-4678299bea08 // indirect
	github.com/gballet/go-verkle v0.1.1-0.20231031103413-a67434b50f46 // indirect
	github.com/getsentry/sentry-go v0.27.0 // indirect
	github.com/go-ole/go-ole v1.3.0 // indirect
	github.com/gofrs/flock v0.8.1 // indirect
	github.com/gogo/protobuf v1.3.2 // indirect
	github.com/golang-jwt/jwt/v4 v4.5.0 // indirect
	github.com/golang/snappy v0.0.5-0.20220116011046-fa5810519dcb // indirect
	github.com/google/uuid v1.6.0 // indirect
	github.com/gorilla/websocket v1.5.1 // indirect
	github.com/hashicorp/go-bexpr v0.1.13 // indirect
	github.com/holiman/billy v0.0.0-20230718173358-1c7e68d277a7 // indirect
	github.com/holiman/bloomfilter/v2 v2.0.3 // indirect
	github.com/holiman/uint256 v1.2.4 // indirect
	github.com/huin/goupnp v1.3.0 // indirect
	github.com/jackpal/go-nat-pmp v1.0.2 // indirect
	github.com/klauspost/compress v1.17.6 // indirect
	github.com/kr/pretty v0.3.1 // indirect
	github.com/kr/text v0.2.0 // indirect
	github.com/mattn/go-colorable v0.1.13 // indirect
	github.com/mattn/go-isatty v0.0.20 // indirect
	github.com/mattn/go-runewidth v0.0.15 // indirect
	github.com/mitchellh/mapstructure v1.5.0 // indirect
	github.com/mitchellh/pointerstructure v1.2.1 // indirect
	github.com/mmcloughlin/addchain v0.4.0 // indirect
	github.com/olekukonko/tablewriter v0.0.5 // indirect
	github.com/pkg/errors v0.9.1 // indirect
	github.com/prometheus/client_golang v1.18.0 // indirect
	github.com/prometheus/client_model v0.5.0 // indirect
	github.com/prometheus/common v0.46.0 // indirect
	github.com/prometheus/procfs v0.12.0 // indirect
	github.com/rivo/uniseg v0.4.7 // indirect
	github.com/rogpeppe/go-internal v1.12.0 // indirect
	github.com/rs/cors v1.10.1 // indirect
	github.com/russross/blackfriday/v2 v2.1.0 // indirect
	github.com/shirou/gopsutil v3.21.11+incompatible // indirect
	github.com/status-im/keycard-go v0.3.2 // indirect
	github.com/supranational/blst v0.3.11 // indirect
	github.com/syndtr/goleveldb v1.0.1-0.20210819022825-2ae1ddf74ef7 // indirect
	github.com/tklauser/go-sysconf v0.3.13 // indirect
	github.com/tklauser/numcpus v0.7.0 // indirect
	github.com/tyler-smith/go-bip39 v1.1.0 // indirect
	github.com/urfave/cli/v2 v2.27.1 // indirect
	github.com/xrash/smetrics v0.0.0-20231213231151-1d8dd44e695e // indirect
	github.com/yusufpapurcu/wmi v1.2.4 // indirect
	golang.org/x/crypto v0.19.0 // indirect
	golang.org/x/exp v0.0.0-20240205201215-2c58cdc269a3 // indirect
	golang.org/x/mod v0.15.0 // indirect
	golang.org/x/net v0.21.0 // indirect
	golang.org/x/sync v0.6.0 // indirect
	golang.org/x/sys v0.17.0 // indirect
	golang.org/x/text v0.14.0 // indirect
	golang.org/x/time v0.5.0 // indirect
	golang.org/x/tools v0.17.0 // indirect
	google.golang.org/protobuf v1.32.0 // indirect
	gopkg.in/natefinch/lumberjack.v2 v2.2.1 // indirect
	rsc.io/tmplfunc v0.0.3 // indirect
)
